…
\_\_Rent A Film\_\_은 전 세계 108개국에 분포하고 있으며, 인도가 60개, 중국이 53개, 미국이 36개로 가장
많다.

각 나라에 있는 customer\_base의 개수의 분포를 살펴보자.

``` r
result5_cnt <- result5 %>% group_by(customer_base) %>% summarise(n = n())
result5_cnt
```

    ## # A tibble: 21 x 2
    ##    customer_base     n
    ##            <dbl> <int>
    ##  1             1    41
    ##  2             2    19
    ##  3             3    14
    ##  4             4     4
    ##  5             5     6
    ##  6             6     4
    ##  7             7     3
    ##  8             8     2
    ##  9             9     1
    ## 10            10     1
    ## # ... with 11 more rows
…
